%YAML 1.1
%TAG !u! tag:unity3d.com,2011:
--- !u!21 &2100000
Material:
  serializedVersion: 6
  m_ObjectHideFlags: 0
  m_CorrespondingSourceObject: {fileID: 0}
  m_PrefabInstance: {fileID: 0}
  m_PrefabAsset: {fileID: 0}
  m_Name: CubeParticles
  m_Shader: {fileID: 4800000, guid: 0406db5a14f94604a8c57ccfbc9f3b46, type: 3}
  m_ShaderKeywords: _ALPHATEST_ON _EMISSION
  m_LightmapFlags: 2
  m_EnableInstancingVariants: 0
  m_DoubleSidedGI: 0
  m_CustomRenderQueue: 2450
  stringTagMap:
    RenderType: TransparentCutout
  disabledShaderPasses: []
  m_SavedProperties:
    serializedVersion: 3
    m_TexEnvs:
    - _BaseMap:
        m_Texture: {fileID: 2800000, guid: 8ecfe72d7db2e8c449fe684f88ffe010, type: 3}
        m_Scale: {x: 1, y: 1}
        m_Offset: {x: 0, y: 0}
    - _BumpMap:
        m_Texture: {fileID: 0}
        m_Scale: {x: 1, y: 1}
        m_Offset: {x: 0, y: 0}
    - _DetailAlbedoMap:
        m_Texture: {fileID: 0}
        m_Scale: {x: 1, y: 1}
        m_Offset: {x: 0, y: 0}
    - _DetailMask:
        m_Texture: {fileID: 0}
        m_Scale: {x: 1, y: 1}
        m_Offset: {x: 0, y: 0}
    - _DetailNormalMap:
        m_Texture: {fileID: 0}
        m_Scale: {x: 1, y: 1}
        m_Offset: {x: 0, y: 0}
    - _DetailTex:
        m_Texture: {fileID: 0}
        m_Scale: {x: 1, y: 1}
        m_Offset: {x: 0, y: 0}
    - _EmissionMap:
        m_Texture: {fileID: 2800000, guid: 8ecfe72d7db2e8c449fe684f88ffe010, type: 3}
        m_Scale: {x: 1, y: 1}
        m_Offset: {x: 0, y: 0}
    - _MainTex:
        m_Texture: {fileID: 2800000, guid: 8ecfe72d7db2e8c449fe684f88ffe010, type: 3}
        m_Scale: {x: 1, y: 1}
        m_Offset: {x: 0, y: 0}
    - _MatCapMask:
        m_Texture: {fileID: 0}
        m_Scale: {x: 1, y: 1}
        m_Offset: {x: 0, y: 0}
    - _MatCapTex:
        m_Texture: {fileID: 0}
        m_Scale: {x: 1, y: 1}
        m_Offset: {x: 0, y: 0}
    - _MetallicGlossMap:
        m_Texture: {fileID: 0}
        m_Scale: {x: 1, y: 1}
        m_Offset: {x: 0, y: 0}
    - _OcclusionMap:
        m_Texture: {fileID: 0}
        m_Scale: {x: 1, y: 1}
        m_Offset: {x: 0, y: 0}
    - _ParallaxMap:
        m_Texture: {fileID: 0}
        m_Scale: {x: 1, y: 1}
        m_Offset: {x: 0, y: 0}
    - _Ramp:
        m_Texture: {fileID: 2800000, guid: abc83c21d57d4a74cabe12065fa1a8b2, type: 3}
        m_Scale: {x: 1, y: 1}
        m_Offset: {x: 0, y: 0}
    - _ReflectionTex:
        m_Texture: {fileID: 0}
        m_Scale: {x: 1, y: 1}
        m_Offset: {x: 0, y: 0}
    - _ShadowBaseMap:
        m_Texture: {fileID: 0}
        m_Scale: {x: 1, y: 1}
        m_Offset: {x: 0, y: 0}
    - _SpecGlossMap:
        m_Texture: {fileID: 0}
        m_Scale: {x: 1, y: 1}
        m_Offset: {x: 0, y: 0}
    - unity_Lightmaps:
        m_Texture: {fileID: 0}
        m_Scale: {x: 1, y: 1}
        m_Offset: {x: 0, y: 0}
    - unity_LightmapsInd:
        m_Texture: {fileID: 0}
        m_Scale: {x: 1, y: 1}
        m_Offset: {x: 0, y: 0}
    - unity_ShadowMasks:
        m_Texture: {fileID: 0}
        m_Scale: {x: 1, y: 1}
        m_Offset: {x: 0, y: 0}
    m_Floats:
    - _AlphaClip: 1
    - _Blend: 0
    - _BlendOp: 0
    - _BumpScale: 1
    - _CameraFadingEnabled: 0
    - _CameraFarFadeDistance: 2
    - _CameraNearFadeDistance: 1
    - _ClearCoatMask: 0
    - _ClearCoatSmoothness: 0
    - _ColorMask: 15
    - _ColorMode: 0
    - _Cull: 2
    - _Cutoff: 0.5
    - _DetailAlbedoMapScale: 1
    - _DetailNormalMapScale: 1
    - _DirectIntensityOutline: 1
    - _DistortionBlend: 0.5
    - _DistortionEnabled: 0
    - _DistortionStrength: 1
    - _DistortionStrengthScaled: 0.1
    - _DstBlend: 0
    - _EmissionChannel: 4
    - _EmissionEnabled: 0
    - _EnvironmentReflections: 1
    - _FlipbookBlending: 0
    - _FlipbookMode: 0
    - _FresnelMax: 1.5
    - _FresnelMin: 0
    - _GlossMapScale: 1
    - _Glossiness: 0.5
    - _GlossyReflections: 1
    - _IndirectIntensity: 1
    - _IndirectIntensityOutline: 0
    - _InvFade: 0.01
    - _LightingEnabled: 1
    - _MatCapMaskChannel: 0
    - _MatCapType: 0
    - _Metallic: 0
    - _Mode: 0
    - _NormalsSource: 0
    - _NormalsUVType: 0
    - _OcclusionChannel: 0
    - _OcclusionStrength: 1
    - _OutlineLightingType: 0
    - _OutlineLightingTypeURP: 0
    - _OutlineMaxWidth: 1
    - _OutlineMinWidth: 1
    - _OutlinePixelSizeType: 0
    - _OutlineTextureLOD: 5
    - _OutlineTextureType: 0
    - _OutlineWidth: 1
    - _Parallax: 0.02
    - _QueueOffset: 0
    - _RampBands: 4
    - _RampBandsSmoothing: 0.1
    - _RampOffset: 0
    - _RampScale: 1
    - _RampSmooth: 0.1
    - _RampSmoothing: 0.1
    - _RampThreshold: 0.75
    - _RampType: 0
    - _ReceiveShadows: 1
    - _ReceiveShadowsOff: 1
    - _ReflectionMapType: 0
    - _ReflectionSmoothness: 0.5
    - _RenderingMode: 0
    - _RimMax: 1
    - _RimMin: 0.5
    - _ShadowColorLightAtten: 1
    - _Shininess: 0.1
    - _SingleIndirectColor: 0
    - _Smoothness: 0.5
    - _SmoothnessSource: 0
    - _SmoothnessTextureChannel: 0
    - _SoftParticlesEnabled: 0
    - _SoftParticlesFarFadeDistance: 1
    - _SoftParticlesNearFadeDistance: 0
    - _SpecSmooth: 0.05
    - _SpecularHighlights: 1
    - _SpecularMapType: 0
    - _SpecularRoughness: 0.5
    - _SpecularToonSize: 0.25
    - _SpecularToonSmoothness: 0.05
    - _SpecularType: 0
    - _SrcBlend: 1
    - _Stencil: 0
    - _StencilComp: 8
    - _StencilOp: 0
    - _StencilReadMask: 255
    - _StencilWriteMask: 255
    - _Strength: 0.2
    - _Surface: 0
    - _UVSec: 0
    - _UseAlphaTest: 0
    - _UseEmission: 0
    - _UseFresnelReflections: 1
    - _UseMatCap: 0
    - _UseMatCapMask: 0
    - _UseMobileMode: 0
    - _UseNormalMap: 0
    - _UseOcclusion: 0
    - _UseOutline: 0
    - _UseReflections: 0
    - _UseRim: 0
    - _UseRimLightMask: 1
    - _UseShadowTexture: 0
    - _UseSpecular: 0
    - _UseUIAlphaClip: 0
    - _WorkflowMode: 1
    - _ZWrite: 1
    m_Colors:
    - _BaseColor: {r: 1, g: 1, b: 1, a: 1}
    - _BaseColorAddSubDiff: {r: 0, g: 0, b: 0, a: 0}
    - _CameraFadeParams: {r: 0, g: Infinity, b: 0, a: 0}
    - _Color: {r: 1, g: 1, b: 1, a: 1}
    - _ColorAddSubDiff: {r: 0, g: 0, b: 0, a: 0}
    - _EmissionColor: {r: 0.8027793, g: 0.8027793, b: 0.8027793, a: 1}
    - _HColor: {r: 1, g: 1, b: 1, a: 1}
    - _MatCapColor: {r: 1, g: 1, b: 1, a: 1}
    - _OutlineColor: {r: 0, g: 0, b: 0, a: 1}
    - _ReflectionColor: {r: 1, g: 1, b: 1, a: 1}
    - _RimColor: {r: 0.8, g: 0.8, b: 0.8, a: 0.5}
    - _SColor: {r: 0.19999996, g: 0.19999996, b: 0.19999996, a: 1}
    - _SoftParticleFadeParams: {r: 0, g: 0, b: 0, a: 0}
    - _SpecColor: {r: 0.5, g: 0.5, b: 0.5, a: 1}
    - _SpecularColor: {r: 0.75, g: 0.75, b: 0.75, a: 1}
    - _TintColor: {r: 0.8679245, g: 0.8679245, b: 0.8679245, a: 0.83137256}
  m_BuildTextureStacks: []
--- !u!114 &4510510496218177230
MonoBehaviour:
  m_ObjectHideFlags: 11
  m_CorrespondingSourceObject: {fileID: 0}
  m_PrefabInstance: {fileID: 0}
  m_PrefabAsset: {fileID: 0}
  m_GameObject: {fileID: 0}
  m_Enabled: 1
  m_EditorHideFlags: 0
  m_Script: {fileID: 11500000, guid: d0353a89b1f911e48b9e16bdc9f2e058, type: 3}
  m_Name: 
  m_EditorClassIdentifier: 
  version: 4
